{
    "app-id" : "org.example.App",
    "runtime" : "org.gnome.Platform",
    "runtime-version" : "3.38",
    "sdk" : "org.gnome.Sdk",
    "command" : "demo",
    "finish-args" : [
        "--share=network",
        "--share=ipc",
        "--socket=fallback-x11",
        "--socket=wayland"
    ],
    "cleanup" : [
        "/include",
        "/lib/pkgconfig",
        "/man",
        "/share/doc",
        "/share/gtk-doc",
        "/share/man",
        "/share/pkgconfig",
        "/share/vala",
        "*.la",
        "*.a"
    ],
    "modules" : [
        {
            "name" : "libhandy",
            "buildsystem" : "meson",
            "config-opts" : [
                "-Dtests=false",
                "-Dexamples=false",
                "-Dglade_catalog=disabled"
            ],
            "sources" : [
                {
                    "type" : "git",
                    "url" : "https://gitlab.gnome.org/yetizone/libhandy.git",
                    "branch" : "deck_leaflet_reordering_API"
                }
            ]
        },
        {
            "name" : "demo",
            "builddir" : true,
            "buildsystem" : "meson",
            "sources" : [
                {
                    "type" : "git",
                    "url" : "file:///home/alexm/Projects/demo"
                }
            ]
        }
    ]
}
